library_name, project_name, organism_name, type, paired, frag_size, frag_stddev, insert_size, insert_stddev, read_orientation, genomic_start, genomic_end
PE200, Alyr, Alyr, fragment, 1, 162, 10, , , inward, ,
PE500, Alyr, Alyr, fragment, 1, 437, 11, , , inward, ,
PE500, Alyr, Alyr, fragment, 1, 539, 16, , , inward, ,
MP03, Alyr, Alyr, jumping, 1, , ,  3507,  449, outward, ,
MP05, Alyr, Alyr, jumping, 1, , ,  5100,  555, outward, ,
MP07, Alyr, Alyr, jumping, 1, , ,  6959,  758, outward, ,
MP11, Alyr, Alyr, jumping, 1, , ,  8631,	1884, outward, ,
MP15, Alyr, Alyr, jumping, 1, , , 11384, 1551, outward, ,
MP22, Alyr, Alyr, long, 1, , , 21800, 2000, outward, ,
